{
	"info": {
		"_postman_id": "decc1f12-68d9-46c8-83bf-4a4d4a11fc08",
		"name": "Area Kubernetes",
		"schema": "https://schema.getpostman.com/json/collection/v2.1.0/collection.json",
		"_exporter_id": "28624380"
	},
	"item": [
		{
			"name": "Areas",
			"request": {
				"method": "GET",
				"header": [],
				"url": {
					"raw": "{{url_api}}/areas",
					"host": [
						"{{url_api}}"
					],
					"path": [
						"areas"
					]
				},
				"description": "Récupère l'ensemble des zones"
			},
			"response": [
				{
					"name": "Succesful response",
					"originalRequest": {
						"method": "GET",
						"header": [],
						"url": {
							"raw": "localhost:3000/api/areas",
							"host": [
								"localhost"
							],
							"port": "3000",
							"path": [
								"api",
								"areas"
							]
						}
					},
					"status": "OK",
					"code": 200,
					"_postman_previewlanguage": "json",
					"header": [
						{
							"key": "X-Powered-By",
							"value": "Express"
						},
						{
							"key": "Access-Control-Allow-Origin",
							"value": "*"
						},
						{
							"key": "Content-Type",
							"value": "application/json; charset=utf-8"
						},
						{
							"key": "Content-Length",
							"value": "149"
						},
						{
							"key": "ETag",
							"value": "W/\"95-8PiogUq13SydXdLeT1fFs/wSXSk\""
						},
						{
							"key": "Date",
							"value": "Tue, 09 Jan 2024 10:40:53 GMT"
						},
						{
							"key": "Connection",
							"value": "keep-alive"
						},
						{
							"key": "Keep-Alive",
							"value": "timeout=5"
						}
					],
					"cookie": [],
					"body": "[\n    {\n        \"_id\": \"659d22a6364e76f18f6ad4ea\",\n        \"name\": \"Londres\",\n        \"price\": 123.45,\n        \"__v\": 0\n    },\n    {\n        \"_id\": \"659d22b2364e76f18f6ad4ed\",\n        \"name\": \"Paris\",\n        \"price\": 123.45,\n        \"__v\": 0\n    }\n]"
				}
			]
		},
		{
			"name": "Add Area",
			"request": {
				"method": "POST",
				"header": [],
				"body": {
					"mode": "raw",
					"raw": "{\r\n  \"name\": \"Issy-les-Moulineaux\",\r\n  \"price\": 45\r\n}",
					"options": {
						"raw": {
							"language": "json"
						}
					}
				},
				"url": {
					"raw": "{{url_api}}/areas/create",
					"host": [
						"{{url_api}}"
					],
					"path": [
						"areas",
						"create"
					]
				},
				"description": "Ajoute une zone"
			},
			"response": [
				{
					"name": "Succesful response",
					"originalRequest": {
						"method": "POST",
						"header": [],
						"body": {
							"mode": "raw",
							"raw": "{\r\n  \"name\": \"Paris\",\r\n  \"price\": 123.45\r\n}",
							"options": {
								"raw": {
									"language": "json"
								}
							}
						},
						"url": {
							"raw": "localhost:3000/api/areas/create",
							"host": [
								"localhost"
							],
							"port": "3000",
							"path": [
								"api",
								"areas",
								"create"
							]
						}
					},
					"status": "Created",
					"code": 201,
					"_postman_previewlanguage": "json",
					"header": [
						{
							"key": "X-Powered-By",
							"value": "Express"
						},
						{
							"key": "Access-Control-Allow-Origin",
							"value": "*"
						},
						{
							"key": "Content-Type",
							"value": "application/json; charset=utf-8"
						},
						{
							"key": "Content-Length",
							"value": "72"
						},
						{
							"key": "ETag",
							"value": "W/\"48-e7luMUwjC8piuVZrvKYyXXbsXLo\""
						},
						{
							"key": "Date",
							"value": "Tue, 09 Jan 2024 10:40:50 GMT"
						},
						{
							"key": "Connection",
							"value": "keep-alive"
						},
						{
							"key": "Keep-Alive",
							"value": "timeout=5"
						}
					],
					"cookie": [],
					"body": "{\n    \"name\": \"Paris\",\n    \"price\": 123.45,\n    \"_id\": \"659d22b2364e76f18f6ad4ed\",\n    \"__v\": 0\n}"
				}
			]
		},
		{
			"name": "Update Area",
			"request": {
				"method": "PATCH",
				"header": [],
				"body": {
					"mode": "raw",
					"raw": "{\r\n  \"price\": 10000.45,\r\n  \"name\": \"Paris\"\r\n}",
					"options": {
						"raw": {
							"language": "json"
						}
					}
				},
				"url": {
					"raw": "{{url_api}}/areas/update/:id",
					"host": [
						"{{url_api}}"
					],
					"path": [
						"areas",
						"update",
						":id"
					],
					"variable": [
						{
							"key": "id",
							"value": "65fc33e0f9af5d3ffc8e1f7e"
						}
					]
				},
				"description": "Modifie une zone"
			},
			"response": [
				{
					"name": "Succesful response",
					"originalRequest": {
						"method": "PATCH",
						"header": [],
						"body": {
							"mode": "raw",
							"raw": "{\r\n  \"price\": 10000.45,\r\n  \"name\": \"Paris\"\r\n}",
							"options": {
								"raw": {
									"language": "json"
								}
							}
						},
						"url": {
							"raw": "{{url_api}}/areas/update/:id",
							"host": [
								"{{url_api}}"
							],
							"path": [
								"areas",
								"update",
								":id"
							],
							"variable": [
								{
									"key": "id",
									"value": "65fc33e0f9af5d3ffc8e1f7e"
								}
							]
						}
					},
					"status": "Created",
					"code": 201,
					"_postman_previewlanguage": "json",
					"header": [
						{
							"key": "X-Powered-By",
							"value": "Express"
						},
						{
							"key": "Access-Control-Allow-Origin",
							"value": "*"
						},
						{
							"key": "Content-Type",
							"value": "application/json; charset=utf-8"
						},
						{
							"key": "Content-Length",
							"value": "82"
						},
						{
							"key": "ETag",
							"value": "W/\"52-8/GG/5eolowBglfAThAIahyTV4g\""
						},
						{
							"key": "Date",
							"value": "Thu, 21 Mar 2024 13:19:42 GMT"
						},
						{
							"key": "Connection",
							"value": "keep-alive"
						},
						{
							"key": "Keep-Alive",
							"value": "timeout=5"
						}
					],
					"cookie": [],
					"body": "{\n    \"_id\": \"65fc33e0f9af5d3ffc8e1f7e\",\n    \"name\": \"Issy-les-Moulineaux\",\n    \"price\": 45,\n    \"__v\": 0\n}"
				}
			]
		}
	],
	"event": [
		{
			"listen": "prerequest",
			"script": {
				"type": "text/javascript",
				"packages": {},
				"exec": [
					""
				]
			}
		},
		{
			"listen": "test",
			"script": {
				"type": "text/javascript",
				"packages": {},
				"exec": [
					""
				]
			}
		}
	],
	"variable": [
		{
			"key": "url_api",
			"value": "localhost:3000/api",
			"type": "string"
		}
	]
}